input,session_id,timestamp,data
custom,5e428659f6ba2b00ec9b1b70,1581418079148000000,Hi there
custom,5e428659f6ba2b00ec9b1b70,1581418080051000000,Hi there
custom,5e428659f6ba2b00ec9b1b70,1581418080259000000,Hi there
