input,session_id,timestamp,button,delta_x,delta_y,delta_z,delta_unit,cursor_x,cursor_y
wheel,5e428677f6ba2b00ec9b1dfc,1581418110361000000,,0,3,0,line,1066,567
wheel,5e428677f6ba2b00ec9b1dfc,1581418110377000000,,0,3,0,line,1066,567
wheel,5e428677f6ba2b00ec9b1dfc,1581418110485000000,,0,12,0,line,1069,577
wheel,5e428677f6ba2b00ec9b1dfc,1581418110549000000,,0,6,0,line,1070,578
wheel,5e428677f6ba2b00ec9b1dfc,1581418110565000000,,0,3,0,line,1070,578
wheel,5e428677f6ba2b00ec9b1dfc,1581418111065000000,,0,-3,0,line,1079,640
wheel,5e428677f6ba2b00ec9b1dfc,1581418111112000000,,0,-3,0,line,1079,640
wheel,5e428677f6ba2b00ec9b1dfc,1581418111127000000,,0,-3,0,line,1079,640
wheel,5e428677f6ba2b00ec9b1dfc,1581418111157000000,,0,-3,0,line,1079,640
wheel,5e428677f6ba2b00ec9b1dfc,1581418111221000000,,0,-6,0,line,1079,640
wheel,5e428677f6ba2b00ec9b1dfc,1581418111283000000,,0,-6,0,line,1074,634
wheel,5e428677f6ba2b00ec9b1dfc,1581418111283000000,,0,-3,0,line,1069,622
wheel,5e428677f6ba2b00ec9b1dfc,1581418111315000000,,0,-3,0,line,1060,604
wheel,5e428677f6ba2b00ec9b1dfc,1581418111830000000,,0,3,0,line,983,418
wheel,5e428677f6ba2b00ec9b1dfc,1581418111893000000,,0,6,0,line,990,451
wheel,5e428677f6ba2b00ec9b1dfc,1581418111908000000,,0,3,0,line,991,456
wheel,5e428677f6ba2b00ec9b1dfc,1581418111954000000,,0,3,0,line,992,465
wheel,5e428677f6ba2b00ec9b1dfc,1581418112018000000,,0,3,0,line,995,476
wheel,5e428677f6ba2b00ec9b1dfc,1581418112079000000,,0,6,0,line,995,490
wheel,5e428677f6ba2b00ec9b1dfc,1581418112080000000,,0,3,0,line,996,498
wheel,5e428677f6ba2b00ec9b1dfc,1581418112127000000,,0,3,0,line,996,506
